{
    "status": "success",
    "data": {
        "totalRows": 17,
        "totalPages": 2,
        "currentPage": 1,
        "numPerPage": 10,
        "resultList": [
            {
                "id": 1199,
                "orderTime": "2017-04-10",
                "corporateCustomer": "歌华有线",
                "installVehNum": "3",
                "installDeviceNum": "3",
                "installAddress": "北京歌华有线大厦",
                "businessContact": "李琦",
                "contactPhone": "130984985813",
                "status": "0",
            },
            {
                "id": 1198,
                "orderTime": "2017-04-15",
                "corporateCustomer": "歌华有线",
                "installVehNum": "3",
                "installDeviceNum": "3",
                "installAddress": "北京歌华有线大厦",
                "businessContact": "多组织",
                "contactPhone": "13766666666",
                "status": "1",
            },
            {
                "id": 1197,
                "orderTime": "2017-04-16",
                "corporateCustomer": "歌华有线",
                "installVehNum": "3",
                "installDeviceNum": "3",
                "installAddress": "北京歌华有线大厦",
                "businessContact": "多组织",
                "contactPhone": "13766666666",
                "status": "1",
            },
            {
                "id": 1196,
                "orderTime": "2017-04-09",
                "corporateCustomer": "中移德电",
                "installVehNum": "3",
                "installDeviceNum": "3",
                "installAddress": "上海中移德电",
                "businessContact": "徐燕",
                "contactPhone": "18672368600",
                "status": "1",
            },
            {
                "id": 1195,
                "orderTime": "2017-04-08",
                "corporateCustomer": "中移德电",
                "installVehNum": "3",
                "installDeviceNum": "3",
                "installAddress": "上海中移德电",
                "businessContact": "李华",
                "contactPhone": "15000000000",
                "status": "0",
            },
            {
                "id": 1194,
                "orderTime": "2017-04-07",
                "corporateCustomer": "中移德电网络科技有限公司",
                "installVehNum": "10",
                "installDeviceNum": "4",
                "installAddress": "上海中移德电",
                "businessContact": "李华",
                "contactPhone": "18681479331",
                "status": "0",
            },
            {
                "id": 1193,
                "orderTime": "2017-04-07",
                "corporateCustomer": "中移德电网络科技有限公司",
                "installVehNum": "10",
                "installDeviceNum": "4",
                "installAddress": "上海中移德电",
                "businessContact": "李华",
                "contactPhone": "18681479331",
                "status": "0",
            },
            {
                "id": 1192,
                "orderTime": "2017-04-10",
                "corporateCustomer": "歌华有线",
                "installVehNum": "3",
                "installDeviceNum": "3",
                "installAddress": "北京歌华有线大厦",
                "businessContact": "李琦",
                "contactPhone": "130984985813",
                "status": "0",
            },
            {
                "id": 1191,
                "orderTime": "2017-04-15",
                "corporateCustomer": "歌华有线",
                "installVehNum": "3",
                "installDeviceNum": "3",
                "installAddress": "北京歌华有线大厦",
                "businessContact": "多组织",
                "contactPhone": "13766666666",
                "status": "1",
            },
            {
                "id": 1190,
                "orderTime": "2017-04-16",
                "corporateCustomer": "歌华有线",
                "installVehNum": "3",
                "installDeviceNum": "3",
                "installAddress": "北京歌华有线大厦",
                "businessContact": "多组织",
                "contactPhone": "13766666666",
                "status": "1",
            },
            {
                "id": 1189,
                "orderTime": "2017-04-09",
                "corporateCustomer": "中移德电",
                "installVehNum": "3",
                "installDeviceNum": "3",
                "installAddress": "上海中移德电",
                "businessContact": "徐燕",
                "contactPhone": "18672368600",
                "status": "1",
            },
            {
                "id": 1188,
                "orderTime": "2017-04-08",
                "corporateCustomer": "中移德电",
                "installVehNum": "3",
                "installDeviceNum": "3",
                "installAddress": "上海中移德电",
                "businessContact": "李华",
                "contactPhone": "15000000000",
                "status": "0",
            },
            {
                "id": 1187,
                "orderTime": "2017-04-07",
                "corporateCustomer": "中移德电网络科技有限公司",
                "installVehNum": "10",
                "installDeviceNum": "4",
                "installAddress": "上海中移德电",
                "businessContact": "李华",
                "contactPhone": "18681479331",
                "status": "0",
            },
            {
                "id": 1186,
                "orderTime": "2017-04-07",
                "corporateCustomer": "中移德电网络科技有限公司",
                "installVehNum": "10",
                "installDeviceNum": "4",
                "installAddress": "上海中移德电",
                "businessContact": "李华",
                "contactPhone": "18681479331",
                "status": "0",
            },
            {
                "id": 1185,
                "orderTime": "2017-04-08",
                "corporateCustomer": "中移德电",
                "installVehNum": "3",
                "installDeviceNum": "3",
                "installAddress": "上海中移德电",
                "businessContact": "李华",
                "contactPhone": "15000000000",
                "status": "0",
            },
            {
                "id": 1184,
                "orderTime": "2017-04-07",
                "corporateCustomer": "中移德电网络科技有限公司",
                "installVehNum": "10",
                "installDeviceNum": "4",
                "installAddress": "上海中移德电",
                "businessContact": "李华",
                "contactPhone": "18681479331",
                "status": "0",
            },
            {
                "id": 1183,
                "orderTime": "2017-04-07",
                "corporateCustomer": "中移德电网络科技有限公司",
                "installVehNum": "10",
                "installDeviceNum": "4",
                "installAddress": "上海中移德电",
                "businessContact": "李华",
                "contactPhone": "18681479331",
                "status": "0",
            },
        ]
    }
}