{
    "data": {
        "totalRows": 13,
        "totalPages": 2,
        "currentPage": 1,
        "numPerPage": 10,
        "resultList": [
            {
                "id": 156784,
                "deptName": "福州市鼓楼区公安局",
                "institutionCode": "003610082",
                "institutionFeature": "行政公安",
                "levelType": 6,
                "applyNumber": "3",
                "sumAccount": "180.03",
                "status": "0",
            },
            {
                "id": 156785,
                "deptName": "福州市鼓楼区公安局",
                "institutionCode": "003610082",
                "institutionFeature": "行政公安",
                "levelType": 6,
                "applyNumber": "3",
                "sumAccount": "180.03",
                "status": "0",
            },
            {
                "id": 156786,
                "deptName": "福州市鼓楼区公安局",
                "institutionCode": "003610082",
                "institutionFeature": "行政公安",
                "levelType": 6,
                "applyNumber": "3",
                "sumAccount": "180.03",
                "status": "0",
            },
            {
                "id": 156787,
                "deptName": "福州市鼓楼区公安局",
                "institutionCode": "003610082",
                "institutionFeature": "行政公安",
                "levelType": 6,
                "applyNumber": "3",
                "sumAccount": "180.03",
                "status": "0",
            },
            {
                "id": 156788,
                "deptName": "福州市鼓楼区公安局",
                "institutionCode": "003610082",
                "institutionFeature": "行政公安",
                "levelType": 6,
                "applyNumber": "3",
                "sumAccount": "180.03",
                "status": "0",
            },
            {
                "id": 156789,
                "deptName": "福州市鼓楼区公安局",
                "institutionCode": "003610082",
                "institutionFeature": "行政公安",
                "levelType": 6,
                "applyNumber": "3",
                "sumAccount": "180.03",
                "status": "0",
            },
            {
                "id": 156790,
                "deptName": "福州市鼓楼区公安局",
                "institutionCode": "003610082",
                "institutionFeature": "行政公安",
                "levelType": 6,
                "applyNumber": "3",
                "sumAccount": "180.03",
                "status": "0",
            },
            {
                "id": 156791,
                "deptName": "福州市鼓楼区公安局",
                "institutionCode": "003610082",
                "institutionFeature": "行政公安",
                "levelType": 6,
                "applyNumber": "3",
                "sumAccount": "180.03",
                "status": "0",
            },
            {
                "id": 156792,
                "deptName": "福州市鼓楼区公安局",
                "institutionCode": "003610082",
                "institutionFeature": "行政公安",
                "levelType": 6,
                "applyNumber": "3",
                "sumAccount": "180.03",
                "status": "0",
            },
            {
                "id": 156793,
                "deptName": "福州市鼓楼区公安局",
                "institutionCode": "003610082",
                "institutionFeature": "行政公安",
                "levelType": 6,
                "applyNumber": "3",
                "sumAccount": "180.03",
                "status": "0",
            },
        ]
    },
    "status": "success"
}